…
```r
places <- pl_search_places() %>%
  filter(locationPrecision == 'precise') %>%
  select(title, type = featureTypes, description, 
         lon = reprLong, lat = reprLat, 
         periods = timePeriods, minDate, maxDate, id, tags) %>%
  collect  %>%
  filter(between(lat, ymin(srtm), ymax(srtm)) & between(lon, xmin(srtm), xmax(srtm))) %>%
  filter(str_detect(periods, 'R')) %>%
  print
```

```
## # A tibble: 1,817 x 10
##    title   type   description     lon   lat periods minDate maxDate     id
##    <chr>   <chr>  <chr>         <dbl> <dbl> <chr>     <int>   <int>  <dbl>
##  1 Ad Rub… stati… An ancient p…  7.16  36.1 RL         - 30     640 305023
##  2 Ad Sav… settl… An ancient p…  5.07  36.3 RL         - 30     640 305024
##  3 Ain Sm… mine   An ancient p…  6.50  36.3 RL         - 30     640 305027
##  4 Aquae … settl… An ancient p…  7.27  36.5 RL         - 30     640 305030
##  5 *Astor… settl… An ancient p…  6.88  36.9 HRL        -330     640 305032
##  6 Asuccu… settl… An ancient p…  7.52  36.6 RL         - 30     640 305033
##  7 Calama  settl… An ancient p…  7.43  36.5 HRL        -330     640 305039
##  8 Caput … spring An ancient p…  6.02  36.2 R          - 30     300 305040
##  9 Castel… settl… An ancient p…  6.46  36.3 RL         - 30     640 305043
## 10 Castel… settl… An ancient p…  5.20  36.2 RL         - 30     640 305044
## # ... with 1,807 more rows, and 1 more variable: tags <chr>
```
…
